{
  "apiVersion": "extensions/v1beta1",
  "kind": "Deployment",
  "metadata": {
    "annotations": {
      "deployment.kubernetes.io/revision": "1"
    },
    "creationTimestamp": "2018-12-28T05:46:28Z",
    "generation": 1,
    "labels": {
      "app": "liveness-http",
      "app.cmb.cn/name": "nginx.app-status",
      "app.cmb.cn/uuid": "ec640458-0a63-11e9-9ba5-0242ac120007"
    },
    "name": "liveness-http-deployment",
    "namespace": "app-status",
    "resourceVersion": "5994864",
    "selfLink": "/apis/extensions/v1beta1/namespaces/app-status/deployments/liveness-http-deployment",
    "uid": "eb7721ab-0a63-11e9-9cf7-5254004f2ad2"
  },
  "spec": {
    "progressDeadlineSeconds": 600,
    "replicas": 3,
    "revisionHistoryLimit": 10,
    "selector": {
      "matchLabels": {
        "test": "liveness"
      }
    },
    "strategy": {
      "rollingUpdate": {
        "maxSurge": "25%",
        "maxUnavailable": "25%"
      },
      "type": "RollingUpdate"
    },
    "template": {
      "metadata": {
        "creationTimestamp": null,
        "labels": {
          "app.cmb.cn/name": "nginx.app-status",
          "cmb-test": "app-status-Deployment-liveness-http-deployment",
          "test": "liveness"
        },
        "name": "liveness-http"
      },
      "spec": {
        "containers": [
          {
            "args": [
              "/server"
            ],
            "image": "k8s.gcr.io/liveness",
            "imagePullPolicy": "Always",
            "livenessProbe": {
              "failureThreshold": 3,
              "httpGet": {
                "httpHeaders": [
                  {
                    "name": "X-Custom-Header",
                    "value": "Awesome"
                  }
                ],
                "path": "/started",
                "port": 8080,
                "scheme": "HTTP"
              },
              "initialDelaySeconds": 3,
              "periodSeconds": 3,
              "successThreshold": 1,
              "timeoutSeconds": 1
            },
            "name": "liveness",
            "readinessProbe": {
              "failureThreshold": 3,
              "httpGet": {
                "httpHeaders": [
                  {
                    "name": "X-Custom-Header",
                    "value": "Awesome"
                  }
                ],
                "path": "/healthz",
                "port": 8080,
                "scheme": "HTTP"
              },
              "initialDelaySeconds": 5,
              "periodSeconds": 5,
              "successThreshold": 1,
              "timeoutSeconds": 1
            },
            "resources": {},
            "terminationMessagePath": "/dev/termination-log",
            "terminationMessagePolicy": "File"
          }
        ],
        "dnsPolicy": "ClusterFirst",
        "restartPolicy": "Always",
        "schedulerName": "default-scheduler",
        "securityContext": {},
        "terminationGracePeriodSeconds": 30
      }
    }
  },
  "status": {
    "conditions": [
      {
        "lastTransitionTime": "2018-12-28T05:46:28Z",
        "lastUpdateTime": "2018-12-28T05:46:38Z",
        "message": "ReplicaSet \"liveness-http-deployment-dcd979cb\" has successfully progressed.",
        "reason": "NewReplicaSetAvailable",
        "status": "True",
        "type": "Progressing"
      },
      {
        "lastTransitionTime": "2019-01-09T07:21:52Z",
        "lastUpdateTime": "2019-01-09T07:21:52Z",
        "message": "Deployment does not have minimum availability.",
        "reason": "MinimumReplicasUnavailable",
        "status": "False",
        "type": "Available"
      }
    ],
    "observedGeneration": 1,
    "replicas": 3,
    "unavailableReplicas": 3,
    "updatedReplicas": 3
  }
}