{
  "apiVersion": "v1",
  "kind": "Pod",
  "metadata": {
    "creationTimestamp": "2018-12-28T08:54:48Z",
    "generateName": "default-controller-manager-",
    "labels": {
      "api": "default",
      "control-plane": "controller-manager",
      "controller-revision-hash": "default-controller-manager-df49fcdfd",
      "kubebuilder.k8s.io": "0.1.10",
      "statefulset.kubernetes.io/pod-name": "default-controller-manager-0"
    },
    "name": "default-controller-manager-0",
    "namespace": "default-system",
    "ownerReferences": [
      {
        "apiVersion": "apps/v1beta1",
        "blockOwnerDeletion": true,
        "controller": true,
        "kind": "StatefulSet",
        "name": "default-controller-manager",
        "uid": "118a9321-0811-11e9-9cf7-5254004f2ad2"
      }
    ],
    "resourceVersion": "6675168",
    "selfLink": "/api/v1/namespaces/default-system/pods/default-controller-manager-0",
    "uid": "3b122ad5-0a7e-11e9-8350-5254004f2ad2"
  },
  "spec": {
    "containers": [
      {
        "args": [
          "--install-crds=false"
        ],
        "command": [
          "/root/controller-manager"
        ],
        "image": "my-image",
        "imagePullPolicy": "Always",
        "name": "controller-manager",
        "resources": {
          "limits": {
            "cpu": "100m",
            "memory": "30Mi"
          },
          "requests": {
            "cpu": "100m",
            "memory": "20Mi"
          }
        },
        "terminationMessagePath": "/dev/termination-log",
        "terminationMessagePolicy": "File",
        "volumeMounts": [
          {
            "mountPath": "/var/run/secrets/kubernetes.io/serviceaccount",
            "name": "default-token-xrgh8",
            "readOnly": true
          }
        ]
      }
    ],
    "dnsPolicy": "ClusterFirst",
    "hostname": "default-controller-manager-0",
    "nodeName": "vm-16-12-ubuntu",
    "restartPolicy": "Always",
    "schedulerName": "default-scheduler",
    "securityContext": {},
    "serviceAccount": "default",
    "serviceAccountName": "default",
    "subdomain": "default-controller-manager-service",
    "terminationGracePeriodSeconds": 10,
    "tolerations": [
      {
        "effect": "NoExecute",
        "key": "node.kubernetes.io/not-ready",
        "operator": "Exists",
        "tolerationSeconds": 300
      },
      {
        "effect": "NoExecute",
        "key": "node.kubernetes.io/unreachable",
        "operator": "Exists",
        "tolerationSeconds": 300
      }
    ],
    "volumes": [
      {
        "name": "default-token-xrgh8",
        "secret": {
          "defaultMode": 420,
          "secretName": "default-token-xrgh8"
        }
      }
    ]
  },
  "status": {
    "conditions": [
      {
        "lastProbeTime": null,
        "lastTransitionTime": "2018-12-28T08:56:01Z",
        "status": "True",
        "type": "Initialized"
      },
      {
        "lastProbeTime": null,
        "lastTransitionTime": "2018-12-28T08:56:01Z",
        "message": "containers with unready status: [controller-manager]",
        "reason": "ContainersNotReady",
        "status": "False",
        "type": "Ready"
      },
      {
        "lastProbeTime": null,
        "lastTransitionTime": "2018-12-28T08:56:01Z",
        "message": "containers with unready status: [controller-manager]",
        "reason": "ContainersNotReady",
        "status": "False",
        "type": "ContainersReady"
      },
      {
        "lastProbeTime": null,
        "lastTransitionTime": "2018-12-28T08:56:01Z",
        "status": "True",
        "type": "PodScheduled"
      }
    ],
    "containerStatuses": [
      {
        "image": "my-image",
        "imageID": "",
        "lastState": {},
        "name": "controller-manager",
        "ready": false,
        "restartCount": 0,
        "state": {
          "waiting": {
            "message": "Back-off pulling image \"my-image\"",
            "reason": "ImagePullBackOff"
          }
        }
      },
      {
        "image": "my-image-1",
        "imageID": "",
        "lastState": {},
        "name": "controller-manager",
        "ready": false,
        "restartCount": 0,
        "state": {
          "terminated": {
            "reason": "Error"
          }
        }
      }
    ],
    "hostIP": "172.19.16.12",
    "phase": "Pending",
    "podIP": "10.244.0.33",
    "qosClass": "Burstable",
    "startTime": "2018-12-28T08:56:01Z"
  }
}
