{
  "application/app-1":[
    {
      "kind":"ConfigMap",
      "metadata":{
        "name":"cm-1",
        "namespace":"cp-data"
      },
      "EdgeType":"Reference"
    },
    {
      "kind":"Service",
      "metadata":{
        "name":"svc-1",
        "namespace":"cp-data"
      },
      "EdgeType":"Reference"
    },
    {
      "kind":"Deployment",
      "metadata":{
        "name":"deploy-1",
        "namespace":"cp-data"
      },
      "EdgeType":"Reference"
    }
  ]
}