{
  "apiVersion": "v1",
  "items": [
    {
      "apiVersion": "v1",
      "kind": "Namespace",
      "metadata": {
        "creationTimestamp": "2018-12-14T03:16:41Z",
        "name": "3",
        "namespace": "",
        "resourceVersion": "3517911",
        "selfLink": "/api/v1/namespaces/3",
        "uid": "ad85a481-ff4e-11e8-bf5c-5254004f2ad2"
      },
      "spec": {
        "finalizers": [
          "kubernetes"
        ]
      },
      "status": {
        "phase": "Active"
      }
    },
    {
      "apiVersion": "v1",
      "kind": "Namespace",
      "metadata": {
        "creationTimestamp": "2018-12-24T09:23:42Z",
        "name": "alauda-system",
        "namespace": "",
        "resourceVersion": "4440221",
        "selfLink": "/api/v1/namespaces/alauda-system",
        "uid": "9b1a46f3-075d-11e9-9cf7-5254004f2ad2"
      },
      "spec": {
        "finalizers": [
          "kubernetes"
        ]
      },
      "status": {
        "phase": "Active"
      }
    },
    {
      "apiVersion": "v1",
      "kind": "Namespace",
      "metadata": {
        "creationTimestamp": "2018-12-17T06:33:12Z",
        "name": "app-status",
        "namespace": "",
        "resourceVersion": "3822335",
        "selfLink": "/api/v1/namespaces/app-status",
        "uid": "a09b002a-01c5-11e9-bf5c-5254004f2ad2"
      },
      "spec": {
        "finalizers": [
          "kubernetes"
        ]
      },
      "status": {
        "phase": "Active"
      }
    },
    {
      "apiVersion": "v1",
      "kind": "Namespace",
      "metadata": {
        "annotations": {
          "resource.cmb.cn/status": "Initializing"
        },
        "creationTimestamp": "2019-01-03T04:19:55Z",
        "labels": {
          "project.cmb.cn/name": ""
        },
        "name": "config",
        "namespace": "",
        "resourceVersion": "5404933",
        "selfLink": "/api/v1/namespaces/config",
        "uid": "d2d43fac-0f0e-11e9-8c59-5254004f2ad2"
      },
      "spec": {
        "finalizers": [
          "kubernetes"
        ]
      },
      "status": {
        "phase": "Active"
      }
    },
    {
      "apiVersion": "v1",
      "kind": "Namespace",
      "metadata": {
        "creationTimestamp": "2018-12-20T10:31:30Z",
        "name": "daemonset",
        "namespace": "",
        "resourceVersion": "4057074",
        "selfLink": "/api/v1/namespaces/daemonset",
        "uid": "69d090bc-0442-11e9-840f-5254004f2ad2"
      },
      "spec": {
        "finalizers": [
          "kubernetes"
        ]
      },
      "status": {
        "phase": "Active"
      }
    },
    {
      "apiVersion": "v1",
      "kind": "Namespace",
      "metadata": {
        "creationTimestamp": "2018-12-25T09:36:21Z",
        "name": "deddddddfault-fucdkde-fuck",
        "namespace": "",
        "resourceVersion": "4539661",
        "selfLink": "/api/v1/namespaces/deddddddfault-fucdkde-fuck",
        "uid": "899a34f8-0828-11e9-9cf7-5254004f2ad2"
      },
      "spec": {
        "finalizers": [
          "kubernetes"
        ]
      },
      "status": {
        "phase": "Active"
      }
    },
    {
      "apiVersion": "v1",
      "kind": "Namespace",
      "metadata": {
        "creationTimestamp": "2018-11-08T08:03:21Z",
        "name": "default",
        "namespace": "",
        "resourceVersion": "76",
        "selfLink": "/api/v1/namespaces/default",
        "uid": "c29437f7-e32c-11e8-8ce0-5254004f2ad2"
      },
      "spec": {
        "finalizers": [
          "kubernetes"
        ]
      },
      "status": {
        "phase": "Active"
      }
    },
    {
      "apiVersion": "v1",
      "kind": "Namespace",
      "metadata": {
        "annotations": {
          "kubectl.kubernetes.io/last-applied-configuration": "{\"apiVersion\":\"v1\",\"kind\":\"Namespace\",\"metadata\":{\"annotations\":{},\"creationTimestamp\":null,\"labels\":{\"api\":\"default\",\"kubebuilder.k8s.io\":\"0.1.10\"},\"name\":\"default-system\",\"namespace\":\"\"},\"spec\":{},\"status\":{}}\n"
        },
        "creationTimestamp": "2018-12-25T06:48:21Z",
        "labels": {
          "api": "default",
          "kubebuilder.k8s.io": "0.1.10"
        },
        "name": "default-system",
        "namespace": "",
        "resourceVersion": "4528040",
        "selfLink": "/api/v1/namespaces/default-system",
        "uid": "1183bd08-0811-11e9-9cf7-5254004f2ad2"
      },
      "spec": {
        "finalizers": [
          "kubernetes"
        ]
      },
      "status": {
        "phase": "Active"
      }
    },
    {
      "apiVersion": "v1",
      "kind": "Namespace",
      "metadata": {
        "creationTimestamp": "2019-01-03T08:09:19Z",
        "name": "demo-uat",
        "namespace": "",
        "resourceVersion": "5420257",
        "selfLink": "/api/v1/namespaces/demo-uat",
        "uid": "dea996ee-0f2e-11e9-8c59-5254004f2ad2"
      },
      "spec": {
        "finalizers": [
          "kubernetes"
        ]
      },
      "status": {
        "phase": "Active"
      }
    },
    {
      "apiVersion": "v1",
      "kind": "Namespace",
      "metadata": {
        "creationTimestamp": "2019-01-03T08:09:16Z",
        "name": "demo-uata",
        "namespace": "",
        "resourceVersion": "5420251",
        "selfLink": "/api/v1/namespaces/demo-uata",
        "uid": "dd27920e-0f2e-11e9-8c59-5254004f2ad2"
      },
      "spec": {
        "finalizers": [
          "kubernetes"
        ]
      },
      "status": {
        "phase": "Active"
      }
    },
    {
      "apiVersion": "v1",
      "kind": "Namespace",
      "metadata": {
        "creationTimestamp": "2019-01-04T04:31:15Z",
        "name": "f10",
        "namespace": "",
        "resourceVersion": "5502641",
        "selfLink": "/api/v1/namespaces/f10",
        "uid": "92dd81be-0fd9-11e9-8c59-5254004f2ad2"
      },
      "spec": {
        "finalizers": [
          "kubernetes"
        ]
      },
      "status": {
        "phase": "Active"
      }
    },
    {
      "apiVersion": "v1",
      "kind": "Namespace",
      "metadata": {
        "creationTimestamp": "2018-12-24T10:10:46Z",
        "labels": {
          "a": "b",
          "api": "default"
        },
        "name": "f8",
        "namespace": "",
        "resourceVersion": "6125030",
        "selfLink": "/api/v1/namespaces/f8",
        "uid": "2e7a8840-0764-11e9-9cf7-5254004f2ad2"
      },
      "spec": {
        "finalizers": [
          "kubernetes"
        ]
      },
      "status": {
        "phase": "Active"
      }
    },
    {
      "apiVersion": "v1",
      "kind": "Namespace",
      "metadata": {
        "creationTimestamp": "2018-12-11T09:24:48Z",
        "name": "krobelus-1129-ns",
        "namespace": "",
        "resourceVersion": "3252863",
        "selfLink": "/api/v1/namespaces/krobelus-1129-ns",
        "uid": "9b25e7ab-fd26-11e8-bf5c-5254004f2ad2"
      },
      "spec": {
        "finalizers": [
          "kubernetes"
        ]
      },
      "status": {
        "phase": "Active"
      }
    },
    {
      "apiVersion": "v1",
      "kind": "Namespace",
      "metadata": {
        "creationTimestamp": "2018-11-08T08:03:21Z",
        "name": "kube-public",
        "namespace": "",
        "resourceVersion": "80",
        "selfLink": "/api/v1/namespaces/kube-public",
        "uid": "c295f768-e32c-11e8-8ce0-5254004f2ad2"
      },
      "spec": {
        "finalizers": [
          "kubernetes"
        ]
      },
      "status": {
        "phase": "Active"
      }
    },
    {
      "apiVersion": "v1",
      "kind": "Namespace",
      "metadata": {
        "creationTimestamp": "2018-11-08T08:03:20Z",
        "name": "kube-system",
        "namespace": "",
        "resourceVersion": "6",
        "selfLink": "/api/v1/namespaces/kube-system",
        "uid": "c1bf7833-e32c-11e8-8ce0-5254004f2ad2"
      },
      "spec": {
        "finalizers": [
          "kubernetes"
        ]
      },
      "status": {
        "phase": "Active"
      }
    },
    {
      "apiVersion": "v1",
      "kind": "Namespace",
      "metadata": {
        "creationTimestamp": "2018-11-21T01:24:32Z",
        "name": "lgong",
        "namespace": "",
        "resourceVersion": "1237969",
        "selfLink": "/api/v1/namespaces/lgong",
        "uid": "33174c5c-ed2c-11e8-9168-5254004f2ad2"
      },
      "spec": {
        "finalizers": [
          "kubernetes"
        ]
      },
      "status": {
        "phase": "Active"
      }
    },
    {
      "apiVersion": "v1",
      "kind": "Namespace",
      "metadata": {
        "creationTimestamp": "2018-12-19T03:32:52Z",
        "name": "limits",
        "namespace": "",
        "resourceVersion": "4008085",
        "selfLink": "/api/v1/namespaces/limits",
        "uid": "c3ecc8a7-033e-11e9-bf5c-5254004f2ad2"
      },
      "spec": {
        "finalizers": [
          "kubernetes"
        ]
      },
      "status": {
        "phase": "Active"
      }
    },
    {
      "apiVersion": "v1",
      "kind": "Namespace",
      "metadata": {
        "creationTimestamp": "2018-12-21T08:26:00Z",
        "name": "liveness",
        "namespace": "",
        "resourceVersion": "4145183",
        "selfLink": "/api/v1/namespaces/liveness",
        "uid": "0c7e9c7a-04fa-11e9-840f-5254004f2ad2"
      },
      "spec": {
        "finalizers": [
          "kubernetes"
        ]
      },
      "status": {
        "phase": "Active"
      }
    },
    {
      "apiVersion": "v1",
      "kind": "Namespace",
      "metadata": {
        "creationTimestamp": "2019-01-02T06:28:20Z",
        "name": "mem-example",
        "namespace": "",
        "resourceVersion": "5317369",
        "selfLink": "/api/v1/namespaces/mem-example",
        "uid": "9908feaa-0e57-11e9-8c59-5254004f2ad2"
      },
      "spec": {
        "finalizers": [
          "kubernetes"
        ]
      },
      "status": {
        "phase": "Active"
      }
    },
    {
      "apiVersion": "v1",
      "kind": "Namespace",
      "metadata": {
        "creationTimestamp": "2018-12-19T03:45:24Z",
        "name": "ratiotest-c6",
        "namespace": "",
        "resourceVersion": "4008947",
        "selfLink": "/api/v1/namespaces/ratiotest-c6",
        "uid": "84842f3c-0340-11e9-bf5c-5254004f2ad2"
      },
      "spec": {
        "finalizers": [
          "kubernetes"
        ]
      },
      "status": {
        "phase": "Active"
      }
    },
    {
      "apiVersion": "v1",
      "kind": "Namespace",
      "metadata": {
        "annotations": {
          "resource.cmb.cn/status": "Initializing"
        },
        "creationTimestamp": "2018-12-19T08:37:29Z",
        "labels": {
          "project.cmb.cn/name": ""
        },
        "name": "ratiotest-dan",
        "namespace": "",
        "resourceVersion": "4029343",
        "selfLink": "/api/v1/namespaces/ratiotest-dan",
        "uid": "52524ee2-0369-11e9-bf5c-5254004f2ad2"
      },
      "spec": {
        "finalizers": [
          "kubernetes"
        ]
      },
      "status": {
        "phase": "Active"
      }
    },
    {
      "apiVersion": "v1",
      "kind": "Namespace",
      "metadata": {
        "creationTimestamp": "2018-12-18T06:13:01Z",
        "name": "statefulset",
        "namespace": "",
        "resourceVersion": "3919374",
        "selfLink": "/api/v1/namespaces/statefulset",
        "uid": "f930ac03-028b-11e9-bf5c-5254004f2ad2"
      },
      "spec": {
        "finalizers": [
          "kubernetes"
        ]
      },
      "status": {
        "phase": "Active"
      }
    },
    {
      "apiVersion": "v1",
      "kind": "Namespace",
      "metadata": {
        "annotations": {
          "resource.cmb.cn/status": "Initializing"
        },
        "creationTimestamp": "2018-11-20T09:03:22Z",
        "name": "zhouchangjian-zhouchangjian-1",
        "namespace": "",
        "resourceVersion": "1172550",
        "selfLink": "/api/v1/namespaces/zhouchangjian-zhouchangjian-1",
        "uid": "21a71182-eca3-11e8-9168-5254004f2ad2"
      },
      "spec": {
        "finalizers": [
          "kubernetes"
        ]
      },
      "status": {
        "phase": "Active"
      }
    }
  ],
  "kind": "List",
  "metadata": {
    "resourceVersion": "",
    "selfLink": ""
  }
}