module krobelus

require (
	github.com/DeanThompson/ginpprof v0.0.0-20170218162546-8c0e31bfeaa8
	github.com/Jeffail/gabs v1.0.0
	github.com/PuerkitoBio/purell v1.1.0
	github.com/PuerkitoBio/urlesc v0.0.0-20170810143723-de5bf2ad4578
	github.com/Rican7/retry v0.1.0
	github.com/alauda/bergamot v0.0.0-20180920095214-2794cf8de207
	github.com/alauda/cyborg v0.4.6
	github.com/alauda/kvlog v0.0.0-20181206112411-77ca0c1c850a
	github.com/alecthomas/template v0.0.0-20160405071501-a0175ee3bccc
	github.com/codahale/hdrhistogram v0.0.0-20161010025455-3a0bb77429bd
	github.com/davecgh/go-spew v1.1.1
	github.com/docker/spdystream v0.0.0-20170912183627-bc6354cbbc29
	github.com/fsnotify/fsnotify v1.4.7
	github.com/ghodss/yaml v1.0.0
	github.com/gin-contrib/sse v0.0.0-20170109093832-22d885f9ecc7
	github.com/gin-gonic/gin v1.3.0
	github.com/go-openapi/jsonpointer v0.18.0
	github.com/go-openapi/jsonreference v0.18.0
	github.com/go-openapi/spec v0.18.0
	github.com/go-openapi/swag v0.18.0
	github.com/gogo/protobuf v0.0.0-20171007142547-342cbe0a0415
	github.com/golang/glog v0.0.0-20160126235308-23def4e6c14b
	github.com/golang/protobuf v1.2.0
	github.com/google/btree v0.0.0-20161217183710-316fb6d3f031
	github.com/google/go-querystring v0.0.0-20170111101155-53e6ce116135
	github.com/google/gofuzz v0.0.0-20170612174753-24818f796faf
	github.com/googleapis/gnostic v0.1.0
	github.com/gorilla/websocket v1.2.0
	github.com/gregjones/httpcache v0.0.0-20170926212834-c1f8028e62ad
	github.com/hashicorp/hcl v1.0.0
	github.com/json-iterator/go v0.0.0-20180612202835-f2b4162afba3
	github.com/juju/errors v0.0.0-20170703010042-c7d06af17c68
	github.com/levigross/grequests v0.0.0-20171009010347-bf9788368aa0
	github.com/magiconair/properties v1.8.0
	github.com/mailru/easyjson v0.0.0-20180823135443-60711f1a8329
	github.com/mattn/go-isatty v0.0.0-20170925054904-a5cdd64afdee
	github.com/mitchellh/mapstructure v1.1.2
	github.com/modern-go/concurrent v0.0.0-20180306012644-bacd9c7ef1dd
	github.com/modern-go/reflect2 v0.0.0-20180701023420-4b7aa43c6742
	github.com/natefinch/lumberjack v0.0.0-20170911140457-aee462912944
	github.com/opentracing/opentracing-go v1.0.2
	github.com/pborman/uuid v0.0.0-20170612153648-e790cca94e6c
	github.com/pelletier/go-toml v1.2.0
	github.com/petar/GoLLRB v0.0.0-20130427215148-53be0d36a84c
	github.com/peterbourgon/diskv v2.0.1+incompatible
	github.com/pkg/errors v0.8.0
	github.com/sirupsen/logrus v0.0.0-20170822132746-89742aefa4b2
	github.com/sony/gobreaker v0.0.0-20170530031423-e9556a45379e
	github.com/spf13/afero v1.1.2
	github.com/spf13/cast v1.2.0
	github.com/spf13/jwalterweatherman v1.0.0
	github.com/spf13/pflag v1.0.2
	github.com/spf13/viper v1.2.1
	github.com/swaggo/gin-swagger v1.0.0
	github.com/swaggo/swag v0.0.0-20181230143619-de0fc425dfb8
	github.com/thoas/go-funk v0.0.0-20181015191849-9132db0aefe2
	github.com/uber/jaeger-client-go v2.15.0+incompatible
	github.com/uber/jaeger-lib v1.5.0
	github.com/ugorji/go v0.0.0-20170312112114-708a42d24682
	github.com/urfave/cli v0.0.0-20171014202726-7bc6a0acffa5
	github.com/vrischmann/envconfig v0.0.0-20160829114458-757beaaeac8d
	golang.org/x/crypto v0.0.0-20171021001404-edd5e9b0879d
	golang.org/x/net v0.0.0-20181005035420-146acd28ed58
	golang.org/x/oauth2 v0.0.0-20181203162652-d668ce993890
	golang.org/x/sys v0.0.0-20180906133057-8cf3aee42992
	golang.org/x/text v0.3.0
	golang.org/x/time v0.0.0-20181108054448-85acf8d2951c
	golang.org/x/tools v0.0.0-20181221235234-d00ac6d27372
	google.golang.org/appengine v1.3.0
	gopkg.in/appleboy/gin-status-api.v1 v1.0.1
	gopkg.in/fukata/golang-stats-api-handler.v1 v1.0.0
	gopkg.in/go-playground/validator.v8 v8.18.2
	gopkg.in/inf.v0 v0.9.0
	gopkg.in/redis.v5 v5.2.9
	gopkg.in/yaml.v2 v2.2.1
	k8s.io/api v0.0.0-20181130031204-d04500c8c3dd
	k8s.io/apiextensions-apiserver v0.0.0-20181128195303-1f84094d7e8e
	k8s.io/apimachinery v0.0.0-20181126123746-eddba98df674
	k8s.io/client-go v0.0.0-20181205110444-5e6a3d4e34f6
	k8s.io/kube-openapi v0.0.0-20171024182355-61b46af70dfe
)
